{
	"publisher_id": 0,
	"publisher_package_id": 892,
	"title": "(GUI-)ScriptManager",
	"description": "<p>The (GUI-)ScriptManager helps you to organize your <br />(GUI-)Scripts while still being in full control of everything.</p>\n<p>Originally it was designed to be used with Scripts that use the Unity GUI Class, but it is possible to use it with any sort of Unity Script.</p>\n<br />\n<br />\nFeatures:<br />\n<br />\n- Call all your (GUI-)Scripts from a centralized place<br />\n- Easy to handle<br />\n- A History, that can be traversed backwards<br />\n- A simple and easy to use Focus System<br />\n- You keep full control of your Scripts<br />",
	"changes": "- Extended Documentation\n- Better Images\n- Improved direct access of enabled Scripts",
	"version_name": "1.01",
	"category": 2,
	"price": "10",
	"recommended_features": [],
	"required_features": []
}
